ESM 206 Lab 5
…
Lets say I want to count the number of lobsters by year and month

## # A tibble: 8 x 3
##   obs_year obs_month     n
##      <dbl> <ord>     <int>
## 1     2012 Aug         231
## 2     2013 Aug         243
## 3     2014 Aug         404
## 4     2014 Sep         106
## 5     2015 Aug        1100
## 6     2016 Aug         809
## 7     2017 Aug        1668
## 8     2018 Aug        1805

## # A tibble: 35 x 3
##    obs_year site      n
##       <dbl> <chr> <int>
##  1     2012 AQUE     38
##  2     2012 CARP     78
##  3     2012 IVEE     26
##  4     2012 MOHK     83
##  5     2012 NAPL      6
##  6     2013 AQUE     32
##  7     2013 CARP     93
##  8     2013 IVEE     40
##  9     2013 MOHK     15
## 10     2013 NAPL     63
## #  with 25 more rows
…
